M48
;Layer_Color=9474304
;FILE_FORMAT=2:5
INCH,LZ
;TYPE=PLATED
T1F00S00C0.01300
T2F00S00C0.03600
T3F00S00C0.04000
T4F00S00C0.05000
%
T01
X00575Y00135
X0066Y00225
Y00325
Y00425
Y00525
Y00625
Y00725
X0049
Y00625
Y00525
Y00425
Y00325
Y00225
Y0082
Y00925
Y01025
Y01125
Y01225
Y01325
Y01425
X0047Y0152
X00435Y01555
X00405Y0173
X00364Y01719
X00293Y0173
X0025
X0023Y0169
X0025Y0165
X0021Y0164
Y016
X0017
X0013
Y0164
X0009
Y016
X0017Y0164
X001Y0177
X0006
X00295Y02
X0044
X00575Y01725
X0066
Y01625
Y01525
Y01425
Y01325
Y01225
Y01125
Y01025
Y00925
Y00825
T02
X0016032Y0174039
Y0193724
T03
X00525Y00075
Y00175
Y00275
Y00375
Y00475
Y00575
Y00675
Y00775
X00625
Y00675
Y00575
Y00475
Y00375
Y00275
Y00175
Y00075
Y00875
Y00975
Y01075
Y01175
Y01275
Y01375
Y01475
Y01575
Y01675
Y01775
Y01875
Y01975
X00525
Y01875
Y01775
Y01675
Y01575
Y01475
Y01375
Y01275
Y01175
Y01075
Y00975
Y00875
X0037Y0199
T04
X0005402Y0169709
Y0198055
M30
